{
  "project_info": {
    "project_number": "660297581280",
    "firebase_url": "https://omshravanapp.firebaseio.com",
    "project_id": "omshravanapp",
    "storage_bucket": "omshravanapp.appspot.com"
  },
  "client": [
    {
      "client_info": {
        "mobilesdk_app_id": "1:660297581280:android:195f3e5836268541",
        "android_client_info": {
          "package_name": "com.zecast.live.om_saravanabava"
        }
      },
      "oauth_client": [
        {
          "client_id": "660297581280-0c087kvtgvi0r5ujmkfic9nbdcjujerb.apps.googleusercontent.com",
          "client_type": 1,
          "android_info": {
            "package_name": "com.zecast.live.om_saravanabava",
            "certificate_hash": "5677ce00527cc58790d3e4949e572ceb7c3eb822"
          }
        },
        {
          "client_id": "660297581280-tsho6m4elkkbrrds9j5imgq9bdnrbmqs.apps.googleusercontent.com",
          "client_type": 3
        }
      ],
      "api_key": [
        {
          "current_key": "AIzaSyCckNSRznSRZBXYGHNHPDHiyUTV4mmyo9k"
        }
      ],
      "services": {
        "analytics_service": {
          "status": 1
        },
        "appinvite_service": {
          "status": 2,
          "other_platform_oauth_client": [
            {
              "client_id": "660297581280-tsho6m4elkkbrrds9j5imgq9bdnrbmqs.apps.googleusercontent.com",
              "client_type": 3
            }
          ]
        },
        "ads_service": {
          "status": 2
        }
      }
    }
  ],
  "configuration_version": "1"
}